<?xml version="1.0" encoding="UTF-8"?>
<!DOCTYPE svg PUBLIC "-//W3C//DTD SVG 1.1//EN" "http://www.w3.org/Graphics/SVG/1.1/DTD/svg11.dtd">
<!-- Creator: CorelDRAW X8 -->
<svg xmlns="http://www.w3.org/2000/svg" xml:space="preserve" width="1682mm" height="1189mm" version="1.1" style="shape-rendering:geometricPrecision; text-rendering:geometricPrecision; image-rendering:optimizeQuality; fill-rule:evenodd; clip-rule:evenodd"
viewBox="0 0 168200 118900"
 xmlns:xlink="http://www.w3.org/1999/xlink">
 <defs>
  <style type="text/css">
   <![CDATA[
    .str0 {stroke:#2B2A29;stroke-width:20}
    .str1 {stroke:#2B2A29;stroke-width:7.62}
    .str3 {stroke:black;stroke-width:7.62}
    .str2 {stroke:#231F20;stroke-width:10;stroke-linecap:round;stroke-linejoin:round}
    .fil1 {fill:none}
    .fil2 {fill:#D9DADA}
    .fil0 {fill:#C5C6C6}
    .fil3 {fill:#9D9E9E}
    .fil4 {fill:white}
   ]]>
  </style>
 </defs>
 <g id="Ebene_x0020_1">
  <metadata id="CorelCorpID_0Corel-Layer"/>
  <g id="_2005746383376">
   <path class="fil0 str0" d="M112606 47889l-264 155 -66 31 -60 42 -52 52 -42 60 -31 66 -19 71 -6 73 6 72 19 71 31 67 42 60 52 51 60 42 66 31 264 156 -21 200 -290 97 -72 16 -67 29 -61 40 -54 50 -44 58 -33 65 -22 70 -9 73 4 73 17 71 28 68 40 61 50 54 59 44 225 207 -62 191 -304 34 -73 2 -72 14 -68 26 -63 38 -55 48 -46 57 -36 64 -24 69 -11 72 1 73 14 72 26 69 38 62 48 56 178 249 -101 174 -305 -29 -71 -14 -74 -2 -72 12 -69 24 -64 35 -57 46 -48 55 -38 63 -26 69 -14 71 -1 74 11 72 24 69 36 64 122 281 -135 149 -292 -92 -67 -28 -72 -17 -73 -4 -72 9 -70 22 -66 33 -58 44 -50 53 -40 62 -29 67 -16 72 -4 73 9 72 21 70 61 300 -162 118 -267 -150 -60 -42 -66 -31 -71 -19 -73 -6 -72 6 -71 19 -67 31 -60 42 -51 52 -42 60 -31 66 -19 71 -7 73 7 72 -3 306 -184 82 -229 -202 -50 -54 -58 -44 -65 -33 -70 -22 -73 -9 -73 4 -72 17 -67 28 -61 40 -54 50 -44 59 -33 65 -22 70 -8 72 -67 299 -196 42 -183 -246 -37 -63 -48 -55 -57 -46 -64 -36 -69 -23 -73 -12 -73 1 -72 14 -68 27 -63 37 -55 48 -46 57 -36 64 -24 70 -126 278 -202 0 -126 -278 -24 -70 -36 -64 -46 -57 -55 -48 -63 -37 -68 -27 -72 -14 -73 -1 -73 12 -69 23 -64 36 -57 46 -48 55 -37 63 -183 246 -196 -42 -66 -299 -9 -72 -22 -70 -33 -65 -44 -59 -54 -50 -61 -40 -67 -28 -72 -17 -73 -4 -73 9 -70 22 -65 33 -58 44 -50 54 -229 202 -184 -82 -3 -306 7 -72 -7 -73 -19 -71 -31 -66 -42 -60 -51 -52 -60 -42 -67 -31 -71 -19 -72 -6 -73 6 -71 19 -66 31 -60 42 -267 150 -162 -118 61 -300 21 -70 9 -72 -4 -73 -16 -72 -29 -67 -40 -62 -50 -53 -58 -44 -66 -33 -70 -22 -72 -9 -73 4 -72 17 -67 28 -292 92 -134 -149 122 -281 35 -64 24 -69 11 -72 -1 -74 -14 -71 -26 -69 -38 -63 -48 -55 -57 -46 -64 -35 -69 -24 -72 -12 -74 2 -71 14 -305 29 -101 -174 178 -249 48 -56 38 -62 26 -69 14 -72 1 -73 -11 -72 -24 -69 -35 -64 -47 -57 -55 -48 -63 -38 -68 -26 -72 -14 -73 -2 -304 -34 -62 -191 225 -207 59 -44 50 -54 40 -61 28 -68 17 -71 4 -73 -9 -73 -22 -70 -33 -65 -44 -58 -54 -50 -61 -40 -67 -29 -72 -16 -290 -97 -21 -200 264 -156 66 -31 60 -42 52 -51 42 -60 31 -67 19 -71 6 -72 -6 -73 -19 -71 -31 -66 -42 -60 -52 -52 -60 -42 -66 -31 -264 -155 21 -200 290 -98 72 -16 67 -29 61 -40 54 -49 44 -59 33 -65 22 -70 9 -73 -4 -73 -17 -71 -28 -68 -40 -61 -50 -54 -59 -44 -225 -206 62 -192 304 -34 73 -2 72 -14 68 -26 63 -38 55 -48 47 -56 35 -65 24 -69 11 -72 -1 -73 -14 -72 -26 -68 -38 -63 -48 -55 -178 -250 101 -174 305 30 71 13 74 2 72 -12 69 -24 64 -35 57 -46 48 -55 38 -63 26 -68 14 -72 1 -73 -11 -73 -24 -69 -35 -64 -122 -281 134 -149 292 92 67 28 72 17 73 4 72 -9 70 -22 66 -33 58 -44 50 -53 40 -62 29 -67 16 -72 4 -73 -9 -72 -21 -70 -61 -300 162 -118 267 150 60 42 66 31 71 19 73 7 72 -7 71 -19 67 -31 60 -42 51 -52 42 -59 31 -67 19 -71 7 -72 -7 -73 3 -306 184 -82 229 203 50 53 58 44 65 33 70 22 73 9 73 -4 72 -17 67 -28 61 -40 54 -50 44 -58 33 -66 22 -70 9 -72 66 -299 196 -42 183 246 37 63 48 55 57 46 64 36 69 23 73 12 73 -1 72 -14 68 -27 63 -37 55 -48 46 -57 36 -64 24 -69 126 -279 202 0 126 279 24 69 36 64 46 57 55 48 63 37 68 27 72 14 73 1 73 -12 69 -23 64 -36 57 -46 48 -55 37 -63 183 -246 196 42 67 299 8 72 22 70 33 66 44 58 54 50 61 40 67 28 72 17 73 4 73 -9 70 -22 65 -33 58 -44 50 -53 229 -203 184 82 3 306 -7 73 7 72 19 71 31 67 42 59 51 52 60 42 67 31 71 19 72 7 73 -7 71 -19 66 -31 60 -42 267 -150 162 118 -61 300 -21 70 -9 72 4 73 16 72 29 67 40 62 50 53 58 44 66 33 70 22 72 9 73 -4 72 -17 67 -28 292 -92 135 149 -122 281 -36 64 -24 69 -11 73 1 73 14 72 26 68 38 63 48 55 57 46 64 35 69 24 72 12 74 -2 71 -13 305 -30 101 174 -178 250 -48 55 -38 63 -26 68 -14 72 -1 73 11 72 24 69 36 65 46 56 55 48 63 38 68 26 72 14 73 2 304 34 62 192 -225 206 -59 44 -50 54 -40 61 -28 68 -17 71 -4 73 9 73 22 70 33 65 44 59 54 49 61 40 67 29 72 16 290 98 21 200zm-7504 -2554l-53 -126c-191,-586 -114,-1003 479,-1127 285,-58 581,-88 883,-88 302,0 598,30 883,88 593,124 670,541 479,1127l-46 111c415,173 789,426 1101,741l82 -80c465,-387 874,-473 1206,1 467,704 740,1548 740,2457 0,908 -273,1752 -740,2456 -332,474 -741,388 -1206,1l-82 -80c-312,315 -686,568 -1101,741l46 111c191,586 114,1003 -479,1128 -285,57 -581,87 -883,87 -302,0 -598,-30 -883,-87 -593,-125 -670,-542 -479,-1128l53 -126c-411,-176 -779,-432 -1087,-747l-103 101c-465,387 -874,473 -1206,-1 -467,-704 -740,-1548 -740,-2456 0,-909 273,-1753 740,-2457 332,-474 741,-388 1206,-1l103 101c308,-315 676,-571 1087,-747z"/>
   <path class="fil1 str0" d="M106411 42893c3063,0 5546,2483 5546,5546 0,3062 -2483,5545 -5546,5545 -3063,0 -5546,-2483 -5546,-5545 0,-3063 2483,-5546 5546,-5546"/>
   <path class="fil1 str0" d="M106411 42974c3018,0 5464,2447 5464,5465 0,3017 -2446,5464 -5464,5464 -3018,0 -5464,-2447 -5464,-5464 0,-3018 2446,-5465 5464,-5465"/>
  </g>
  <g id="_2005746380752">
   <path class="fil2 str1" d="M98465 49168c-22,-240 -33,-484 -33,-729 0,-625 72,-1233 208,-1816 68,-304 247,-566 492,-742l704 -492c32,-22 74,-36 115,-36 112,0 203,91 203,202 0,28 -4,55 -16,79 -292,653 -486,1360 -561,2101l0 1c-14,125 -45,245 -93,356 -4,9 -8,19 -12,28l-11 21 -556 1114c-39,74 -117,125 -207,125 -122,0 -222,-92 -233,-211 0,0 0,-1 0,-1zm12064 -4121l-838 392c-293,-321 -633,-598 -1008,-821l24 -1040c1,-16 2,-32 2,-48 0,-419 -279,-772 -662,-885 -520,-147 -1069,-225 -1636,-225 -567,0 -1116,78 -1636,225 -383,113 -662,466 -662,885 0,16 1,32 2,48l24 1040c-375,223 -715,500 -1008,821l-838 -392c-107,-50 -226,-78 -351,-78 -295,0 -553,154 -700,385 -540,902 -850,1957 -850,3085 0,1127 310,2182 850,3084 147,231 405,385 700,385 125,0 244,-28 351,-78l838 -392c293,321 633,598 1008,822l-24 1039c-1,16 -2,32 -2,48 0,419 279,772 662,885 520,147 1069,225 1636,225 567,0 1116,-78 1636,-225 383,-113 662,-466 662,-885 0,-16 -1,-32 -2,-48l-24 -1039c375,-224 715,-501 1008,-822l838 392c107,50 226,78 351,78 295,0 553,-154 700,-385 540,-902 850,-1957 850,-3084 0,-1128 -310,-2183 -850,-3085 -147,-231 -405,-385 -700,-385 -125,0 -244,28 -351,78zm-11451 6542c-61,-148 -100,-322 -100,-492 -1,-199 49,-385 131,-552l282 -565c28,-57 90,-93 158,-93 84,0 156,54 176,134 125,532 312,1039 553,1515 0,0 1,2 1,2 83,167 129,355 129,554 0,103 -8,202 -34,300l-155 593c-20,79 -93,122 -176,137 -49,9 -113,-31 -149,-79 -320,-452 -594,-939 -816,-1454zm10516 4166c-735,320 -1528,533 -2359,620l-7 1c-44,5 -87,7 -132,7 -275,0 -530,-89 -737,-240l0 -1 -640 -516c-2,-2 -6,-6 -8,-8 -40,-34 -65,-85 -65,-142 0,-106 86,-191 191,-191 5,0 9,0 14,1l1 0c185,15 371,22 559,22 693,0 1362,-102 1992,-293 115,-35 238,-54 365,-54 216,0 418,56 595,152l252 139 8 5c81,50 135,139 135,241 0,108 -60,201 -148,249 -3,2 -13,7 -16,8zm4763 -8046c22,240 33,484 33,730 0,624 -72,1232 -208,1815 -68,304 -247,566 -492,742l-704 493c-32,21 -74,35 -115,35 -112,0 -203,-90 -203,-202 0,-28 4,-55 16,-79 292,-653 486,-1360 561,-2101l0 -1c14,-125 45,-245 93,-356 4,-9 8,-19 12,-28l11 -21 556 -1114c39,-74 117,-125 207,-125 122,0 222,92 233,211 0,0 0,1 0,1zm-613 -2421c61,148 100,322 100,492 1,199 -49,385 -131,552l-282 565c-28,57 -90,93 -158,93 -84,0 -156,-54 -176,-134 -125,-532 -312,-1039 -553,-1515 0,0 -1,-2 -1,-2 -83,-167 -129,-355 -129,-554 0,-103 8,-201 34,-300l155 -593c20,-79 93,-122 176,-137 49,-9 113,31 149,79 320,452 594,939 816,1454zm-10516 -4166c735,-320 1528,-533 2359,-620l7 -1c44,-5 87,-7 132,-7 275,0 530,89 737,240l0 1 640 516c2,2 6,6 8,8 40,34 65,86 65,142 0,106 -86,191 -191,191 -5,0 -9,0 -14,-1l-1 0c-185,-15 -371,-22 -559,-22 -693,0 -1362,103 -1993,293 -115,36 -238,54 -364,54 -216,0 -418,-56 -595,-152l-252 -139 -8 -5c-81,-50 -135,-139 -135,-241 0,-108 60,-201 148,-249 3,-2 13,-6 16,-8zm12524 5947l-249 178 -63 37 -56 47 -47 56 -37 63 -25 69 -13 72 0 73 13 72 25 69 37 63 47 57 56 47 63 36 69 25 276 132 4 189 -271 142 -68 28 -62 39 -54 49 -45 58 -34 64 -23 70 -10 73 3 73 15 71 28 68 39 62 49 54 58 45 65 34 255 169 -22 187 -287 104 -71 18 -67 30 -61 42 -52 51 -43 59 -31 66 -20 71 -7 73 5 73 18 71 31 66 41 61 51 52 60 43 230 201 -48 183 -299 64 -73 8 -70 21 -65 33 -59 43 -50 53 -41 61 -29 68 -17 71 -5 73 9 73 21 70 32 65 44 59 53 51 201 230 -72 175 -305 23 -74 -2 -72 11 -69 23 -64 36 -58 45 -48 55 -38 63 -27 68 -14 72 -2 73 11 72 24 70 35 64 46 57 167 256 -95 163 -305 -19 -72 -11 -74 1 -71 13 -69 26 -63 38 -55 48 -46 57 -36 64 -24 69 -12 72 2 73 13 72 26 69 38 63 131 276 -116 149 -300 -61 -70 -21 -73 -9 -73 4 -71 16 -68 29 -61 40 -54 50 -44 58 -33 66 -21 70 -9 72 4 73 16 72 29 67 92 292 -135 131 -289 -101 -67 -30 -70 -19 -73 -6 -73 7 -71 19 -66 31 -60 42 -52 52 -41 60 -31 67 -19 71 -6 72 7 73 19 71 52 302 -153 112 -272 -140 -62 -39 -67 -29 -72 -15 -73 -4 -72 10 -70 21 -65 34 -58 45 -50 54 -39 61 -29 68 -16 71 -3 73 9 73 11 306 -167 90 -250 -175 -56 -48 -63 -37 -69 -25 -72 -14 -73 0 -72 12 -69 24 -64 37 -56 46 -48 56 -37 63 -25 69 -14 72 0 73 -32 304 -177 67 -224 -208 -49 -55 -58 -45 -64 -35 -70 -22 -72 -11 -73 2 -72 15 -68 27 -62 39 -55 48 -45 58 -35 64 -23 70 -10 72 -73 298 -184 42 -195 -237 -41 -61 -50 -52 -59 -43 -66 -33 -71 -20 -72 -8 -73 5 -71 18 -67 30 -61 40 -53 51 -43 59 -32 66 -20 70 -113 285 -188 16 -161 -260 -32 -66 -43 -59 -53 -51 -60 -41 -67 -29 -71 -18 -73 -5 -73 8 -71 20 -65 32 -60 43 -50 53 -41 61 -30 67 -150 266 -189 -9 -123 -280 -23 -70 -35 -64 -45 -58 -55 -48 -62 -39 -68 -27 -72 -15 -73 -2 -72 11 -70 22 -64 35 -58 45 -49 55 -38 62 -185 244 -186 -35 -84 -294 -13 -72 -26 -69 -37 -63 -47 -56 -57 -46 -63 -36 -69 -25 -73 -12 -73 0 -72 14 -68 25 -64 37 -55 48 -47 56 -217 216 -179 -60 -43 -302 -3 -74 -16 -71 -28 -68 -40 -61 -49 -54 -59 -45 -65 -33 -69 -22 -73 -10 -73 4 -72 16 -67 28 -62 39 -54 50 -244 184 -169 -83 -2 -306 7 -73 -6 -73 -19 -71 -31 -66 -41 -61 -52 -51 -60 -43 -66 -31 -71 -19 -72 -7 -73 6 -71 19 -67 31 -60 41 -267 150 -156 -106 40 -303 17 -72 3 -73 -8 -72 -22 -70 -33 -66 -44 -58 -54 -50 -61 -40 -67 -29 -72 -16 -73 -4 -72 9 -70 21 -66 33 -284 112 -141 -126 81 -295 26 -69 14 -71 1 -74 -11 -72 -24 -69 -36 -64 -46 -57 -56 -48 -63 -37 -68 -26 -72 -14 -73 -1 -72 11 -69 24 -298 72 -122 -144 121 -281 35 -64 23 -70 11 -72 -1 -73 -15 -72 -26 -68 -38 -63 -49 -55 -57 -46 -64 -35 -69 -23 -73 -11 -73 1 -72 15 -304 31 -101 -160 157 -262 44 -59 33 -65 20 -71 9 -72 -5 -73 -17 -72 -29 -67 -40 -61 -51 -53 -59 -44 -65 -32 -70 -21 -73 -8 -73 4 -306 -11 -78 -172 192 -238 51 -52 41 -61 30 -66 18 -71 6 -73 -7 -73 -20 -71 -32 -66 -42 -59 -53 -51 -60 -42 -67 -30 -71 -18 -73 -6 -301 -52 -55 -181 223 -210 58 -45 49 -54 39 -62 27 -68 16 -71 3 -74 -10 -72 -23 -70 -34 -64 -45 -58 -54 -49 -62 -39 -68 -28 -71 -16 -292 -92 -29 -187 249 -178 63 -36 56 -47 47 -57 37 -63 25 -69 13 -72 0 -73 -13 -72 -25 -69 -37 -63 -47 -56 -56 -48 -63 -36 -69 -25 -276 -132 -4 -189 271 -142 68 -28 62 -39 54 -49 45 -58 34 -64 23 -70 10 -73 -3 -73 -15 -71 -28 -68 -39 -62 -49 -54 -58 -45 -65 -34 -255 -168 22 -188 288 -104 70 -18 67 -30 61 -42 52 -51 43 -59 31 -66 20 -71 7 -73 -5 -73 -18 -71 -31 -66 -41 -61 -51 -52 -60 -43 -230 -201 48 -183 299 -64 73 -8 70 -21 65 -33 59 -43 50 -53 41 -61 29 -68 17 -71 5 -73 -9 -73 -21 -70 -32 -65 -44 -59 -53 -50 -201 -231 72 -175 305 -22 74 1 72 -11 69 -23 64 -35 58 -46 48 -55 38 -63 27 -68 14 -72 2 -73 -11 -72 -24 -70 -35 -64 -46 -57 -167 -256 95 -163 305 19 72 12 74 -2 71 -13 69 -26 63 -38 55 -48 46 -57 36 -64 24 -69 12 -72 -2 -73 -13 -72 -26 -69 -38 -62 -131 -277 116 -149 300 61 70 21 73 9 73 -4 71 -16 68 -29 61 -40 54 -50 44 -58 33 -65 21 -71 9 -72 -4 -73 -16 -72 -29 -67 -92 -292 135 -131 289 101 67 30 70 19 73 6 73 -6 71 -20 66 -31 60 -42 52 -52 41 -60 31 -67 19 -70 6 -73 -7 -73 -19 -71 -52 -302 153 -111 272 139 62 39 67 29 72 16 73 3 72 -10 70 -21 65 -34 58 -45 50 -53 39 -62 29 -68 16 -71 3 -73 -9 -73 -11 -306 167 -90 250 175 56 48 63 37 69 26 72 13 73 0 72 -12 69 -24 64 -36 56 -47 48 -56 37 -63 25 -69 14 -72 0 -73 32 -304 177 -67 224 208 49 55 58 45 64 35 70 23 72 10 73 -2 72 -15 68 -27 62 -39 55 -48 45 -58 35 -64 23 -70 10 -72 73 -298 184 -42 195 237 41 61 50 52 59 44 66 32 71 20 72 8 73 -5 71 -18 67 -30 61 -40 53 -51 43 -59 32 -66 20 -70 113 -285 188 -16 161 260 32 66 43 59 53 51 60 41 67 29 71 18 73 5 73 -8 71 -20 65 -32 60 -43 50 -53 41 -61 30 -67 150 -266 189 9 123 280 23 70 35 64 45 58 55 48 62 39 68 27 72 15 73 2 72 -10 70 -23 64 -35 58 -45 49 -55 38 -62 185 -244 186 35 84 294 13 72 26 69 37 63 47 56 57 46 63 37 69 24 73 12 73 0 72 -14 68 -25 64 -37 55 -48 47 -56 217 -216 179 60 43 303 3 73 16 71 28 68 40 61 49 54 59 45 65 33 69 22 73 10 73 -4 72 -16 67 -28 62 -39 54 -50 244 -184 169 83 2 306 -7 73 6 73 19 71 31 66 41 61 52 52 60 42 66 31 71 19 72 7 73 -6 71 -19 67 -31 60 -41 267 -150 156 106 -40 303 -17 72 -3 73 8 72 22 70 33 66 44 58 54 50 61 40 67 29 72 16 73 4 72 -9 70 -21 66 -33 284 -112 141 126 -81 295 -26 69 -14 72 -1 73 11 72 24 69 36 64 46 57 56 48 63 37 68 26 72 14 73 1 72 -11 69 -24 298 -72 122 144 -121 281 -35 64 -23 70 -11 72 1 73 15 72 26 68 38 63 49 55 57 46 64 35 69 23 73 11 73 -1 72 -15 304 -31 101 160 -157 262 -44 59 -33 66 -20 70 -9 72 5 74 17 71 29 67 40 61 51 53 59 44 65 32 70 21 73 8 73 -4 306 11 78 172 -192 238 -51 52 -41 61 -30 67 -18 70 -6 73 7 73 20 71 32 66 42 59 53 51 60 42 67 30 71 18 73 6 301 52 55 181 -223 210 -58 45 -49 54 -39 62 -27 68 -16 71 -3 74 10 72 23 70 34 65 45 57 54 50 62 39 68 27 71 16 292 93 29 186z"/>
   <circle id="center_00" class="fil1 str1" cx="106411" cy="48439" r="450"/>
   <g>
    <path class="fil1 str1" d="M99816 45403l796 -557c224,-157 668,-179 910,-70l428 193"/>
    <path class="fil1 str1" d="M98665 46528c81,-318 263,-590 529,-765l1468 -996c226,-154 670,-170 911,-57l720 337"/>
    <path class="fil1 str1" d="M99112 51666c-359,-811 -587,-1693 -657,-2619"/>
    <path class="fil1 str1" d="M99838 52962c97,141 198,278 303,411 0,1 0,1 1,1 83,107 212,175 357,175 159,0 297,-81 379,-205l939 -1446"/>
   </g>
   <path class="fil1 str1" d="M103989 53916c90,317 222,568 415,720l521 440 1163 985c223,191 508,313 820,330 76,4 152,2 228,-6 876,-79 1712,-300 2484,-639 156,-72 265,-229 265,-412 0,-123 -48,-235 -128,-316l-1208 -1152"/>
   <g>
    <path class="fil1 str1" d="M113006 51474l-796 557c-224,157 -668,179 -910,70l-428 -193"/>
    <path class="fil1 str1" d="M114157 50349c-81,318 -263,590 -529,765l-1468 996c-226,154 -670,170 -911,57l-720 -337"/>
    <path class="fil1 str1" d="M113710 45211c359,811 587,1693 657,2619"/>
    <path class="fil1 str1" d="M112984 43915c-96,-141 -198,-278 -303,-411 0,-1 0,-1 -1,-1 -83,-106 -212,-175 -357,-175 -159,0 -297,81 -379,205l-939 1446"/>
   </g>
   <path class="fil1 str1" d="M108777 42787c-87,-235 -203,-423 -359,-546l-521 -440 -1163 -985c-223,-191 -508,-313 -820,-330 -76,-4 -152,-2 -228,6 -876,79 -1712,300 -2484,639 -156,72 -265,229 -265,412 0,123 48,235 128,316l1208 1152"/>
   <line class="fil1 str1" x1="101275" y1="54154" x2="101367" y2= "52591" />
   <polyline class="fil1 str1" points="110966,52035 111415,52752 111382,54022 "/>
   <line class="fil1 str1" x1="108972" y1="54270" x2="110579" y2= "54657" />
   <polyline class="fil1 str1" points="104106,53793 103627,54297 102165,54701 "/>
   <path class="fil1 str1" d="M104273 43011l-465 -443 -1195 -344m-1179 888l139 1598"/>
   <path class="fil1 str1" d="M108549 43011l465 -443 1195 -344m1179 888l-128 1474"/>
   <path class="fil1 str1" d="M106411 40057c4629,0 8382,3752 8382,8382 0,4629 -3753,8381 -8382,8381 -4629,0 -8382,-3752 -8382,-8381 0,-4630 3753,-8382 8382,-8382"/>
   <path class="fil1 str1" d="M106411 39732c4809,0 8707,3898 8707,8707 0,4808 -3898,8706 -8707,8706 -4809,0 -8707,-3898 -8707,-8706 0,-4809 3898,-8707 8707,-8707"/>
   <path class="fil1 str1" d="M106411 39633c4863,0 8805,3943 8805,8806 0,4863 -3942,8805 -8805,8805 -4863,0 -8805,-3942 -8805,-8805 0,-4863 3942,-8806 8805,-8806"/>
  </g>
  <g id="_2005746374864">
   <g>
    <g>
     <path class="fil3 str0" d="M106383 50948l134 0 309 18 229 52 159 84 168 141 167 155 238 269 1310 1720 124 163 145 132 185 66 185 31 190 -18 154 -22 133 -59 604 -472 57 -57 18 -100 0 -103 -16 -88 -112 -166 -581 -888 -55 -83 -77 -119 0 0 -53 -134 -18 -194 111 -182 169 -97 176 -48 181 -28 940 -129 1889 -211 1567 -166 1099 -85 809 -53 3196 -131 3794 -131 0 0c36,0 72,-1 107,-3l3 0 0 -1c820,-56 1467,-739 1467,-1572 0,-834 -647,-1517 -1467,-1573l0 0 -3 -1c-35,-2 -71,-3 -107,-3l0 0 -3794 -131 -3196 -131 -809 -53 -1099 -85 -1567 -166 -1889 -211 -940 -129 -181 -27 -176 -49 -169 -97 -111 -181 18 -195 34 -125 140 -234 0 0 592 -906 112 -165 16 -88 0 -104 -18 -99 -57 -58 -604 -471 -133 -60 -154 -22 -190 -18 -185 31 -185 66 -145 133 -124 163 -1310 1720 -238 269 -167 154 -168 141 -159 84 -229 53 -309 17 -134 0 -309 -17 -229 -53 -159 -84 -167 -141 -168 -154 -238 -269 -1310 -1720 -123 -163 -146 -133 -185 -66 -185 -31 -190 18 -154 22 -133 60 -604 471 -57 58 -18 99 0 104 16 88 112 165 1135 1734 247 464 194 414 126 411 51 328 18 303 0 1244 -18 304 -51 328 -126 410 -194 415 -247 463 -1135 1734 -112 166 -16 88 0 103 18 100 57 57 604 472 133 59 154 22 190 18 185 -31 185 -66 146 -132 123 -163 1310 -1720 238 -269 168 -155 167 -141 159 -84 229 -52 309 -18z"/>
     <circle class="fil3 str0" cx="109603" cy="52988" r="431"/>
     <path class="fil1 str0" d="M110140 52611c90,140 102,337 101,392 -8,324 -267,542 -607,532 -289,-9 -560,-222 -555,-547 4,-338 279,-725 811,-721"/>
     <circle class="fil3 str0" cx="103297" cy="52988" r="431"/>
     <path class="fil1 str0" d="M102760 52611c-90,140 -102,337 -100,392 7,324 266,542 606,532 290,-9 560,-222 555,-547 -4,-338 -278,-725 -810,-721"/>
     <polyline class="fil1 str0" points="109133,44360 107701,46102 107437,46301 107188,46374 106876,46404 106450,46424 106024,46404 105712,46374 105463,46301 105200,46102 103767,44360 "/>
     <polyline class="fil1 str0" points="103767,52476 105200,50734 105463,50535 105712,50463 106024,50432 106450,50412 106876,50432 107188,50463 107437,50535 107701,50734 109133,52476 "/>
     <polyline class="fil1 str0" points="102188,52926 102259,52842 102519,52511 104069,50382 104236,50043 104337,49731 104382,49406 104401,49036 104402,48418 104401,47800 104382,47430 104337,47106 104236,46793 104069,46454 102519,44325 102259,43994 102188,43911 "/>
     <circle class="fil3 str0" cx="106450" cy="48418" r="1410"/>
     <polyline class="fil1 str0" points="109945,46428 109843,46403 109745,46361 109303,45973 109293,45878 109321,45781 110381,44325 110641,43994 110712,43911 "/>
     <polyline class="fil1 str0" points="109945,50449 109843,50474 109745,50516 109303,50904 109293,50999 109321,51096 110381,52552 110641,52883 110712,52967 "/>
     <circle class="fil3 str0" cx="106450" cy="48418" r="1188"/>
     <circle class="fil3 str0" cx="106450" cy="48418" r="1100"/>
     <circle class="fil3 str0" cx="103297" cy="43848" r="431"/>
     <path class="fil1 str0" d="M102760 44225c-90,-140 -102,-337 -100,-392 7,-323 266,-541 606,-531 290,9 560,221 555,546 -4,338 -278,726 -810,721"/>
     <circle class="fil3 str0" cx="109603" cy="43848" r="431"/>
     <path class="fil1 str0" d="M110140 44225c90,-140 102,-337 101,-392 -8,-323 -267,-541 -607,-531 -289,9 -560,221 -555,546 4,338 279,726 811,721"/>
     <circle class="fil3 str0" cx="103297" cy="43848" r="382"/>
     <circle class="fil3 str0" cx="109603" cy="43848" r="382"/>
     <circle class="fil3 str0" cx="103297" cy="43848" r="307"/>
     <circle class="fil3 str0" cx="109603" cy="43848" r="307"/>
     <circle class="fil3 str0" cx="103297" cy="43848" r="200"/>
     <circle class="fil3 str0" cx="109603" cy="43848" r="200"/>
     <circle class="fil3 str0" cx="109603" cy="52988" r="382"/>
     <circle class="fil3 str0" cx="103297" cy="52988" r="382"/>
     <circle class="fil3 str0" cx="109603" cy="52988" r="307"/>
     <circle class="fil3 str0" cx="103297" cy="52988" r="307"/>
     <circle class="fil3 str0" cx="109603" cy="52988" r="200"/>
     <circle class="fil3 str0" cx="103297" cy="52988" r="200"/>
     <circle class="fil3 str0" cx="123950" cy="48418" r="997"/>
     <circle class="fil3 str0" cx="123950" cy="48418" r="704"/>
    </g>
    <path class="fil1 str2" d="M108283 46302c1116,164 3427,497 4857,645 1938,199 4842,339 6047,367 342,9 588,13 763,13 45,1 952,5 988,5"/>
    <path class="fil1 str2" d="M108283 50535c1116,-165 3427,-498 4857,-645 1938,-200 4842,-340 6047,-368 342,-9 588,-12 763,-13 45,0 952,-5 988,-5"/>
   </g>
   <g>
    <path class="fil4 str3" d="M116740 48467l157 -137 816 0 -311 321c0,0 -85,85 -285,85 -201,0 -1071,0 -1071,0 0,0 -108,-8 -195,-89l-77 -68c0,0 -66,-33 -8,-93 58,-60 365,-359 365,-359 0,0 78,-99 281,-99 204,0 1057,0 1057,0l-166 141 -713 0c0,0 -107,19 -165,72 -58,54 -257,253 -257,253 0,0 -63,85 66,85 129,0 777,0 777,0 0,0 97,12 188,-112l-459 0z"/>
    <path class="fil4 str3" d="M117498 48169l151 -141 1317 0c0,0 87,8 133,46 45,37 170,132 170,132 0,0 29,21 -17,64 -46,44 -213,170 -213,170 0,0 -40,27 -127,27 -86,0 -211,0 -211,0l358 269 -435 0 -333 -238c0,0 -27,-31 -122,-31 -95,0 -402,0 -402,0l128 -137 775 0c0,0 68,11 131,-31l103 -74c0,0 45,-56 -29,-56 -74,0 -1377,0 -1377,0z"/>
    <polygon class="fil4 str3" points="119136,48736 119652,48374 119233,48028 119652,48028 120010,48330 120180,48330 120615,48028 121033,48028 120540,48374 120951,48736 120540,48736 120180,48467 120010,48467 119583,48736 "/>
   </g>
  </g>
 </g>
</svg>
